Suite/Test/Step Name,Browser,Description,Start time,End time,Duration,Status
mergeSimilarContacts,Chrome 67.0.3396.99,,2018-07-10 16:16:41,2018-07-10 16:19:30,2m - 49.640s,PASSED
,,,,,,
Test Cases/mergingContacts/mergeSimilarContacts,Chrome 67.0.3396.99,,2018-07-10 16:16:42,2018-07-10 16:19:30,2m - 48.432s,PASSED
"Statement - data = com.kms.katalon.core.testdata.TestDataFactory.findTestData(""Data Files/mergingContacts"")",Chrome 67.0.3396.99,extracting data from excel sheet by giving the excel path,2018-07-10 16:16:43,2018-07-10 16:16:46,2.394s,PASSED
"Statement - URL = data.getValue(1, 1)",Chrome 67.0.3396.99,"URL will be taken from cell(1,1)",2018-07-10 16:16:46,2018-07-10 16:16:46,0.079s,PASSED
"Statement - uName = data.getValue(2, 1)",Chrome 67.0.3396.99,"Username will be taken from cell(2,1)",2018-07-10 16:16:46,2018-07-10 16:16:46,0.006s,PASSED
"Statement - pwd = data.getValue(3, 1)",Chrome 67.0.3396.99,"Password will be taken from cell(3,1)",2018-07-10 16:16:46,2018-07-10 16:16:46,0.003s,PASSED
page_Login_Salesforce.navigateAndEnteringUserCredentials.navigateToURL,Chrome 67.0.3396.99,This method will navigate to the corresponding URL,2018-07-10 16:16:46,2018-07-10 16:17:07,21.547s,PASSED
page_Login_Salesforce.navigateAndEnteringUserCredentials.userDetails,Chrome 67.0.3396.99,This method will enter username and password and clicks on login\r\n,2018-07-10 16:17:07,2018-07-10 16:17:57,49.627s,PASSED
page_consoleTabs_salesForce.consoleTabs.clickOnContactpersonen,Chrome 67.0.3396.99,"click on \""casetype dropdown\"" and then click on \""Contactpersonen\"" present in the dropdown",2018-07-10 16:17:57,2018-07-10 16:18:21,24.560s,PASSED
page_complaintCaseCollection_salesForce.allTypesCaseComplaints.clickAndRead1stElementInList,Chrome 67.0.3396.99,click on EDMA customer,2018-07-10 16:18:21,2018-07-10 16:18:42,20.568s,PASSED
page_caseInfo_salesForce.mergeDuplicateCase.clickOnDuplicateAccountLink,Chrome 67.0.3396.99,This will click on duplicate account link,2018-07-10 16:18:42,2018-07-10 16:18:52,9.628s,PASSED
page_caseInfo_salesForce.mergeDuplicateCase.checkBoxDuplicateCase,Chrome 67.0.3396.99,checking both the checkBoxes,2018-07-10 16:18:52,2018-07-10 16:19:03,11.256s,PASSED
page_caseInfo_salesForce.mergeDuplicateCase.toNextButton,Chrome 67.0.3396.99,"Click on \""to next\""",2018-07-10 16:19:03,2018-07-10 16:19:12,9.266s,PASSED
page_caseInfo_salesForce.mergeDuplicateCase.toNextButton,Chrome 67.0.3396.99,"Click on \""to next\"" again",2018-07-10 16:19:12,2018-07-10 16:19:21,9.161s,PASSED
page_caseInfo_salesForce.mergeDuplicateCase.toNextButton,Chrome 67.0.3396.99,"Click on \""merge contact\"" again",2018-07-10 16:19:21,2018-07-10 16:19:30,9.198s,PASSED
